<?xml version="1.0" encoding="UTF-8" standalone="no"?>
<!-- Created with Inkscape (http://www.inkscape.org/) -->
<svg
   xmlns:dc="http://purl.org/dc/elements/1.1/"
   xmlns:cc="http://creativecommons.org/ns#"
   xmlns:rdf="http://www.w3.org/1999/02/22-rdf-syntax-ns#"
   xmlns:svg="http://www.w3.org/2000/svg"
   xmlns="http://www.w3.org/2000/svg"
   xmlns:xlink="http://www.w3.org/1999/xlink"
   xmlns:sodipodi="http://sodipodi.sourceforge.net/DTD/sodipodi-0.dtd"
   xmlns:inkscape="http://www.inkscape.org/namespaces/inkscape"
   version="1.0"
   width="500"
   height="499.99997"
   viewBox="-0.811 -0.732 1708 1708"
   id="svg11310"
   xml:space="preserve"
   sodipodi:version="0.32"
   inkscape:version="0.46"
   sodipodi:docname="lock-private.svg"
   inkscape:output_extension="org.inkscape.output.svg.inkscape"><metadata
   id="metadata52"><rdf:RDF><cc:Work
       rdf:about=""><dc:format>image/svg+xml</dc:format><dc:type
         rdf:resource="http://purl.org/dc/dcmitype/StillImage" /><dc:source>http://commons.wikimedia.org/wiki/Image:Crystal_Clear_action_exit.svg http://commons.wikimedia.org/wiki/Image:Crystal_Clear_action_lock1.png</dc:source><dc:description /><dc:contributor><cc:Agent><dc:title>Everaldo Coelho, YellowIcon</dc:title></cc:Agent></dc:contributor><dc:title>Cadenas fermé rouge</dc:title><dc:date>20080613</dc:date><dc:creator><cc:Agent><dc:title>Jérôme Borme</dc:title></cc:Agent></dc:creator><cc:license
         rdf:resource="LGPL" /></cc:Work></rdf:RDF></metadata><sodipodi:namedview
   inkscape:cy="279.0518"
   inkscape:cx="140.77218"
   inkscape:zoom="0.61748916"
   inkscape:window-height="775"
   inkscape:window-width="1274"
   inkscape:pageshadow="2"
   inkscape:pageopacity="0"
   guidetolerance="10000"
   gridtolerance="10000"
   objecttolerance="10000"
   borderopacity="1.0"
   bordercolor="#666666"
   pagecolor="#71bab8"
   id="base"
   showgrid="true"
   inkscape:document-units="mm"
   inkscape:window-x="586"
   inkscape:window-y="222"
   inkscape:current-layer="svg11310"
   showguides="true"
   inkscape:guide-bbox="true" />
<defs
   id="defs11312"><inkscape:perspective
   sodipodi:type="inkscape:persp3d"
   inkscape:vp_x="0 : 249.99998 : 1"
   inkscape:vp_y="0 : 1000 : 0"
   inkscape:vp_z="500 : 249.99998 : 1"
   inkscape:persp3d-origin="250 : 166.66666 : 1"
   id="perspective54" /><linearGradient
   id="linearGradient19837"><stop
     style="stop-color:#b40000;stop-opacity:1"
     offset="0"
     id="stop19839" /><stop
     style="stop-color:#b40000;stop-opacity:0"
     offset="1"
     id="stop19841" /></linearGradient><linearGradient
   id="linearGradient14977"><stop
     style="stop-color:white;stop-opacity:0.47058824"
     offset="0"
     id="stop14979" /><stop
     style="stop-color:white;stop-opacity:0.70588237"
     offset="1"
     id="stop14981" /></linearGradient><linearGradient
   id="linearGradient14071"><stop
     style="stop-color:white;stop-opacity:1"
     offset="0"
     id="stop14073" /><stop
     style="stop-color:white;stop-opacity:0"
     offset="1"
     id="stop14075" /></linearGradient><linearGradient
   id="linearGradient14012"><stop
     style="stop-color:#dc0000;stop-opacity:1"
     offset="0"
     id="stop14014" /><stop
     style="stop-color:#ff3d01;stop-opacity:0.58823532"
     offset="1"
     id="stop14016" /></linearGradient><linearGradient
   id="linearGradient14004"><stop
     style="stop-color:white;stop-opacity:1"
     offset="0"
     id="stop14006" /><stop
     style="stop-color:white;stop-opacity:0"
     offset="1"
     id="stop14008" /></linearGradient>
<linearGradient
   x1="1531.1748"
   y1="-710.26196"
   x2="514.25446"
   y2="1775.3436"
   id="linearGradient14010"
   xlink:href="#linearGradient14004"
   gradientUnits="userSpaceOnUse"
   gradientTransform="matrix(0.995461,0,0,0.995461,3.833802,3.912899)" /><linearGradient
   x1="1026.7279"
   y1="1147.7113"
   x2="1703.623"
   y2="1703.6219"
   id="linearGradient14022"
   xlink:href="#linearGradient14012"
   gradientUnits="userSpaceOnUse"
   gradientTransform="matrix(0.995461,0,0,0.995461,3.833802,3.912899)" /><linearGradient
   x1="853.22852"
   y1="6994.7397"
   x2="853.22852"
   y2="-1149.4908"
   id="linearGradient14077"
   xlink:href="#linearGradient14071"
   gradientUnits="userSpaceOnUse" /><linearGradient
   x1="1678.5588"
   y1="288.91214"
   x2="1678.5588"
   y2="1417.6237"
   id="linearGradient19843"
   xlink:href="#linearGradient19837"
   gradientUnits="userSpaceOnUse" /><inkscape:perspective
   id="perspective2493"
   inkscape:persp3d-origin="372.04724 : 350.78739 : 1"
   inkscape:vp_z="744.09448 : 526.18109 : 1"
   inkscape:vp_y="0 : 1000 : 0"
   inkscape:vp_x="0 : 526.18109 : 1"
   sodipodi:type="inkscape:persp3d" /><linearGradient
   inkscape:collect="always"
   xlink:href="#linearGradient19837"
   id="linearGradient2431"
   gradientUnits="userSpaceOnUse"
   x1="1678.5588"
   y1="288.91214"
   x2="1678.5588"
   y2="1417.6237"
   gradientTransform="translate(-5.210447e-5,4.612732e-5)" /><linearGradient
   inkscape:collect="always"
   xlink:href="#linearGradient14004"
   id="linearGradient2446"
   gradientUnits="userSpaceOnUse"
   gradientTransform="matrix(0.995461,0,0,0.995461,3.8337499,3.9129451)"
   x1="1531.1748"
   y1="-710.26196"
   x2="514.25446"
   y2="1775.3436" /><linearGradient
   inkscape:collect="always"
   xlink:href="#linearGradient14012"
   id="linearGradient2449"
   gradientUnits="userSpaceOnUse"
   gradientTransform="matrix(0.995461,0,0,0.995461,3.8337499,3.9129451)"
   x1="1026.7279"
   y1="1147.7113"
   x2="1703.623"
   y2="1703.6219" /></defs>
















<path
   id="path17680"
   style="opacity:1;fill:none;fill-opacity:0.07843137;stroke:#e83131;stroke-width:10.2480011;stroke-linecap:round;stroke-linejoin:round;stroke-miterlimit:100;stroke-dasharray:none;stroke-opacity:0.66666667"
   d="M 1417.5447,1699.8019 C 1573.3869,1699.8019 1699.7227,1573.4671 1699.7227,1417.6237" /><path
   id="path17682"
   style="opacity:1;fill:none;fill-opacity:0.07843137;stroke:#e83131;stroke-width:10.2480011;stroke-linecap:round;stroke-linejoin:round;stroke-miterlimit:100;stroke-dasharray:none;stroke-opacity:0.66666667"
   d="M 6.6548998,1417.6237 C 6.6548998,1573.4671 132.99076,1699.8019 288.83306,1699.8019" /><line
   stroke-miterlimit="500"
   x1="288.8331"
   y1="1699.802"
   x2="1417.5448"
   y2="1699.802"
   id="line17684"
   style="opacity:1;fill:none;fill-opacity:0.07843137;stroke:#e83131;stroke-width:10.2480011;stroke-linecap:round;stroke-linejoin:round;stroke-miterlimit:100;stroke-dasharray:none;stroke-opacity:0.66666667" /><line
   stroke-miterlimit="500"
   x1="6.654902"
   y1="288.9122"
   x2="6.654902"
   y2="1417.6238"
   id="line17690"
   style="opacity:1;fill:none;fill-opacity:0.07843137;stroke:#e83131;stroke-width:10.2480011;stroke-linecap:round;stroke-linejoin:round;stroke-miterlimit:100;stroke-dasharray:none;stroke-opacity:0.66666667" /><path
   id="path17692"
   style="opacity:1;fill:none;fill-opacity:0.07843137;stroke:#e83131;stroke-width:10.2480011;stroke-linecap:round;stroke-linejoin:round;stroke-miterlimit:100;stroke-dasharray:none;stroke-opacity:0.66666667"
   d="M 288.83306,6.7340254 C 132.99076,6.7340254 6.6548998,133.06989 6.6548998,288.91219" /><line
   stroke-miterlimit="500"
   x1="1417.5448"
   y1="6.7340403"
   x2="288.8331"
   y2="6.7340403"
   id="line17694"
   style="opacity:1;fill:none;fill-opacity:0.07843137;stroke:#e83131;stroke-width:10.2480011;stroke-linecap:round;stroke-linejoin:round;stroke-miterlimit:100;stroke-dasharray:none;stroke-opacity:0.66666667" /><line
   stroke-miterlimit="500"
   x1="1699.7231"
   y1="1417.6238"
   x2="1699.7231"
   y2="288.9122"
   id="line17700"
   style="opacity:1;fill:none;fill-opacity:0.07843137;stroke:#e83131;stroke-width:10.2480011;stroke-linecap:round;stroke-linejoin:round;stroke-miterlimit:100;stroke-dasharray:none;stroke-opacity:0.66666667" /><path
   id="path17668"
   style="opacity:1;fill:url(#linearGradient2449);fill-opacity:1;fill-rule:evenodd;display:inline"
   d="M 1699.7227,288.91219 C 1699.7227,214.07447 1669.9933,142.30179 1617.0747,89.383118 C 1564.156,36.464445 1492.3834,6.7350154 1417.5456,6.7350154 L 288.83306,6.7350154 C 213.99435,6.7350154 142.22167,36.464445 89.303,89.383118 C 36.38532,142.30179 6.6548998,214.07447 6.6548998,288.91219 L 6.6548998,1417.6237 C 6.6548998,1492.4625 36.38433,1564.2352 89.303,1617.1528 C 142.22167,1670.0716 213.99435,1699.801 288.83306,1699.801 L 1417.5447,1699.801 C 1492.3834,1699.801 1564.1551,1670.0716 1617.0737,1617.1528 C 1669.9924,1564.2352 1699.7218,1492.4615 1699.7218,1417.6237 L 1699.7218,288.91219 L 1699.7227,288.91219 z" /><path
   id="path17670"
   style="opacity:1;fill:url(#linearGradient2446);fill-opacity:1;fill-rule:evenodd;display:inline"
   d="M 1699.7227,288.91219 C 1699.7227,133.06989 1573.3869,6.7350154 1417.5447,6.7350154 L 288.83306,6.7350154 C 132.99076,6.7340254 6.6548998,133.06989 6.6548998,288.91219 L 6.6548998,1135.4457 C 684.2707,1188.7794 1335.8204,863.00507 1699.7227,288.91219 z" /><path
   id="path11342"
   style="opacity:1;fill:#ffffff;fill-opacity:0.25842698;fill-rule:evenodd"
   d="M 1417.5447,1671.5836 C 1558.5028,1661.1612 1674.5606,1556.7094 1699.7227,1417.6237 C 1699.7227,1573.4671 1573.3869,1699.8019 1417.5447,1699.8019 L 288.83306,1699.8019 C 132.99076,1699.8019 6.6548998,1573.4671 6.6548998,1417.6237 C 31.81616,1556.7094 147.87489,1661.1612 288.83306,1671.5836 L 1417.5447,1671.5836 z" /><path
   id="path11336"
   style="opacity:1;fill:none;stroke:#ff5555;stroke-width:14.93190384;stroke-linecap:round;stroke-linejoin:round;stroke-miterlimit:100;stroke-dasharray:none;stroke-opacity:1"
   d="M 1417.5447,1699.8019 C 1573.3869,1699.8019 1699.7227,1573.4671 1699.7227,1417.6237" /><path
   id="path11334"
   style="opacity:1;fill:none;stroke:#ff5555;stroke-width:14.93190384;stroke-linecap:round;stroke-linejoin:round;stroke-miterlimit:100;stroke-dasharray:none;stroke-opacity:1"
   d="M 6.6548998,1417.6237 C 6.6548998,1573.4671 132.99076,1699.8019 288.83306,1699.8019" /><line
   style="opacity:1;fill:none;stroke:#ff5555;stroke-width:14.93190384;stroke-linecap:round;stroke-linejoin:round;stroke-miterlimit:100;stroke-dasharray:none;stroke-opacity:1"
   id="line11326"
   y2="1699.802"
   x2="1417.5448"
   y1="1699.802"
   x1="288.8331"
   stroke-miterlimit="500" /><line
   style="opacity:1;fill:none;stroke:#ff5555;stroke-width:14.93190384;stroke-linecap:round;stroke-linejoin:round;stroke-miterlimit:100;stroke-dasharray:none;stroke-opacity:1"
   id="line11332"
   y2="1417.6238"
   x2="6.654902"
   y1="288.9122"
   x1="6.654902"
   stroke-miterlimit="500" /><path
   id="path11340"
   style="opacity:1;fill:none;stroke:#ff5555;stroke-width:14.93190384;stroke-linecap:round;stroke-linejoin:round;stroke-miterlimit:100;stroke-dasharray:none;stroke-opacity:1"
   d="M 288.83306,6.7340254 C 132.99076,6.7340254 6.6548998,133.06989 6.6548998,288.91219" /><line
   style="opacity:1;fill:none;stroke:#ff5555;stroke-width:14.93190384;stroke-linecap:round;stroke-linejoin:round;stroke-miterlimit:100;stroke-dasharray:none;stroke-opacity:1"
   id="line11330"
   y2="6.7340403"
   x2="288.8331"
   y1="6.7340403"
   x1="1417.5448"
   stroke-miterlimit="500" /><path
   id="path11338"
   style="opacity:1;fill:none;stroke:#ff5555;stroke-width:14.93190384;stroke-linecap:round;stroke-linejoin:round;stroke-miterlimit:100;stroke-dasharray:none;stroke-opacity:1"
   d="M 1699.7227,288.91219 C 1699.7227,133.06989 1573.3869,6.7350154 1417.5447,6.7350154" /><line
   style="opacity:1;fill:none;stroke:#ff5555;stroke-width:14.93190384;stroke-linecap:round;stroke-linejoin:round;stroke-miterlimit:100;stroke-dasharray:none;stroke-opacity:1"
   id="line11328"
   y2="288.9122"
   x2="1699.7231"
   y1="1417.6238"
   x1="1699.7231"
   stroke-miterlimit="500" /><path
   id="path17696"
   style="opacity:1;fill:none;fill-opacity:0.07843137;stroke:#e83131;stroke-width:10.2480011;stroke-linecap:round;stroke-linejoin:round;stroke-miterlimit:100;stroke-dasharray:none;stroke-opacity:0.66666667"
   d="M 1699.7227,288.91219 C 1699.7227,133.06989 1573.3869,6.7350154 1417.5447,6.7350154" /><path
   style="fill:#2b0000;fill-opacity:1;fill-rule:evenodd;stroke:none;stroke-width:1px;stroke-linecap:butt;stroke-linejoin:miter;stroke-opacity:1"
   d="M 550.66121,812.67191 C 550.66121,731.97901 550.66121,639.18211 550.66121,558.48921 C 550.66121,511.43631 575.71001,458.39781 599.07701,425.34591 C 665.87441,330.86331 744.32421,304.30651 865.36361,304.30651 C 865.36361,304.30651 865.36361,449.55381 865.36361,485.86561 C 841.15571,485.86561 816.94781,485.86561 780.63601,485.86561 C 756.42811,485.86561 708.01241,510.07341 708.01241,558.48921 C 708.01241,631.11291 708.01241,812.67191 708.01241,812.67191 L 550.66121,812.67191 z"
   id="path2510"
   sodipodi:nodetypes="ccsscsscc" /><path
   style="fill:#2b0000;fill-opacity:1;fill-rule:evenodd;stroke:none;stroke-width:1px;stroke-linecap:butt;stroke-linejoin:miter;stroke-opacity:1"
   d="M 1155.8581,812.67191 C 1155.8581,731.97901 1155.8581,639.18211 1155.8581,558.48921 C 1155.8581,511.43631 1130.8093,458.39781 1107.4423,425.34591 C 1040.6449,330.86331 962.19511,304.30651 841.15571,304.30651 C 841.15571,304.30651 841.15571,449.55381 841.15571,485.86561 C 865.36361,485.86561 889.57151,485.86561 925.88331,485.86561 C 950.09121,485.86561 998.50691,510.07341 998.50691,558.48921 C 998.50691,631.11291 998.50691,812.67191 998.50691,812.67191 L 1155.8581,812.67191 z"
   id="path3338"
   sodipodi:nodetypes="ccsscsscc" /><rect
   style="fill:#2b0000;fill-opacity:1;fill-rule:nonzero;stroke:#000000;stroke-width:0.70866150000000006;stroke-linecap:round;stroke-linejoin:round;marker:none;marker-start:none;marker-mid:none;marker-end:none;stroke-miterlimit:4;stroke-dasharray:none;stroke-dashoffset:0;stroke-opacity:1;visibility:visible;display:inline;overflow:visible;enable-background:accumulate"
   id="rect2427"
   width="895.20062"
   height="672.79132"
   x="405.41391"
   y="738.48834"
   rx="111.04942"
   ry="99.200508" /></svg>